<?xml version="1.0" encoding="UTF-8" standalone="no"?>
<svg width="19px" height="24px" viewBox="0 0 19 24" version="1.1" xmlns="http://www.w3.org/2000/svg" xmlns:xlink="http://www.w3.org/1999/xlink">
    <!-- Generator: sketchtool 41 (35326) - http://www.bohemiancoding.com/sketch -->
    <title>B20DD102-EE0E-40ED-BB98-01C90F068609</title>
    <desc>Created with sketchtool.</desc>
    <defs></defs>
    <g id="Page-1" stroke="none" stroke-width="1" fill="none" fill-rule="evenodd" opacity="0.5">
        <g id="Web-00_Login_Redesign" transform="translate(-486.000000, -563.000000)" fill="#FFFFFF">
            <g id="Group-3" transform="translate(459.000000, 544.000000)">
                <g id="icon_password" transform="translate(24.000000, 19.000000)">
                    <path d="M12.4997986,17.0046595 C11.184626,17.0046595 10.1150795,15.9279898 10.1150795,14.6040582 C10.1150795,13.2801265 11.184626,12.2034569 12.4997986,12.2034569 C13.8149711,12.2034569 14.8845177,13.2801265 14.8845177,14.6040582 C14.8845177,15.9279898 13.8149711,17.0046595 12.4997986,17.0046595 M12.4997986,9.80285553 L12.4997986,9.80285553 C9.86587631,9.80285553 7.73036036,11.952594 7.73036036,14.6040582 C7.73036036,17.2555223 9.86587631,19.4052608 12.4997986,19.4052608 L12.4997986,19.4052608 C15.1337208,19.4052608 17.2692368,17.2555223 17.2692368,14.6040582 C17.2692368,11.952594 15.1337208,9.80285553 12.4997986,9.80285553 M10.1150795,6.20195353 C10.1150795,4.8756213 11.1834336,3.8013522 12.4997986,3.8013522 L12.4997986,3.8013522 C13.8173559,3.8013522 14.8845177,4.8756213 14.8845177,6.20195353 C14.8845177,7.52828577 13.8173559,8.60255486 12.4997986,8.60255486 L12.4997986,8.60255486 C11.1834336,8.60255486 10.1150795,7.52828577 10.1150795,6.20195353 M12.4676049,21.605412 C9.40204845,21.605412 6.60358058,19.5540981 5.65923181,16.6181627 C4.71726777,13.6918297 5.8011226,10.4870269 8.15841743,8.6721723 C8.81183047,8.16924632 9.05149474,7.33503736 8.94418238,6.51403171 C8.67709384,4.47832178 10.2426619,2.40060133 12.4676049,2.40060133 C14.6913554,2.40060133 16.2569235,4.47832178 15.9910273,6.51403171 C15.883715,7.33383706 16.1221869,8.16924632 16.7755999,8.6721723 C19.1340871,10.4870269 20.2167496,13.6918297 19.2759779,16.6181627 C18.3316291,19.5540981 15.5331613,21.605412 12.4676049,21.605412 M18.81215,7.24621511 C18.5271761,6.98815047 18.384093,6.62325907 18.3995936,6.23796255 C18.5271761,2.91793091 15.8646372,0 12.4676049,0 C9.06938013,0 6.40684125,2.91913122 6.53561608,6.24036315 C6.5499244,6.62445937 6.40684125,6.98935077 6.12186732,7.24501481 C1.0817635,11.780951 2.2490835,20.5491474 8.86667901,23.2990362 C12.368639,24.7550009 16.5097037,23.8907844 19.1865509,21.1901079 C23.3371545,17.0034592 22.6265082,10.6862768 18.81215,7.24621511" id="spaceship-[#83]"></path>
                </g>
            </g>
        </g>
    </g>
</svg>