<?xml version="1.0" encoding="UTF-8" standalone="no"?>
<svg width="26px" height="18px" viewBox="0 0 26 18" version="1.1" xmlns="http://www.w3.org/2000/svg" xmlns:xlink="http://www.w3.org/1999/xlink">
    <!-- Generator: sketchtool 41 (35326) - http://www.bohemiancoding.com/sketch -->
    <title>58DFA961-A43C-4826-864C-344687A30136</title>
    <desc>Created with sketchtool.</desc>
    <defs></defs>
    <g id="Page-1" stroke="none" stroke-width="1" fill="none" fill-rule="evenodd" opacity="0.5">
        <g id="Web-00_Login_Redesign" transform="translate(-771.000000, -566.000000)" fill="#FFFFFF">
            <g id="Group-3" transform="translate(459.000000, 544.000000)">
                <path d="M324.999695,22 C319.091076,22 314.044258,25.7316014 312,31 C314.044258,36.2677784 319.091076,40 324.999695,40 C330.908924,40 335.955132,36.2677784 338,31 C335.955132,25.7316014 330.908924,22 324.999695,22 L324.999695,22 Z M324.999695,36.9995865 C321.738166,36.9995865 319.091076,34.311742 319.091076,31 C319.091076,27.6876378 321.738166,24.9997933 324.999695,24.9997933 C328.261834,24.9997933 330.908924,27.6876378 330.908924,31 C330.908924,34.311742 328.261834,36.9995865 324.999695,36.9995865 L324.999695,36.9995865 Z M324.999695,27.399876 C323.037891,27.399876 321.454157,29.0079934 321.454157,31 C321.454157,32.9920066 323.037891,34.600124 324.999695,34.600124 C326.961498,34.600124 328.545232,32.9920066 328.545232,31 C328.545232,29.0079934 326.961498,27.399876 324.999695,27.399876 L324.999695,27.399876 Z" id="Fill-29"></path>
            </g>
        </g>
    </g>
</svg>