<svg xmlns="http://www.w3.org/2000/svg" width="24" height="24" viewBox="0 0 24 24">
    <g fill="none" fill-rule="evenodd">
        <rect width="20" height="20" x="2" y="2" fill="#FA0" rx="4.286"/>
        <path fill="#FFF" d="M6.292 10.736L5 11.997 10.085 17 20 7.262 18.717 6l-8.632 8.468z"/>
    </g>
</svg>
