<?xml version="1.0" encoding="UTF-8" standalone="no"?>
<svg width="84px" height="109px" viewBox="0 0 84 109" version="1.1" xmlns="http://www.w3.org/2000/svg" xmlns:xlink="http://www.w3.org/1999/xlink">
    <!-- Generator: sketchtool 41.2 (35397) - http://www.bohemiancoding.com/sketch -->
    <title>182B826C-6524-46EB-95A7-D1397B916A22</title>
    <desc>Created with sketchtool.</desc>
    <defs>
        <path d="M7.68806182,4.83883046 C7.68806182,3.73317444 8.59200862,2.83686314 9.69140802,2.83686314 L28.0376568,2.83686314 C29.1440744,2.83686314 30.041003,3.74187778 30.041003,4.83883046 L30.041003,61.524551 C30.041003,62.630207 29.3380705,62.9685564 28.4692207,62.2788954 L19.0706629,54.8186658 L9.27076373,62.3157287 C8.3966616,62.9844294 7.68806182,62.6215037 7.68806182,61.524551 L7.68806182,4.83883046 Z" id="path-1"></path>
        <path d="M7.68806182,4.83883046 C7.68806182,3.73317444 8.59200862,2.83686314 9.69140802,2.83686314 L28.0376568,2.83686314 C29.1440744,2.83686314 30.041003,3.74187778 30.041003,4.83883046 L30.041003,61.524551 C30.041003,62.630207 29.3380705,62.9685564 28.4692207,62.2788954 L19.0706629,54.8186658 L9.27076373,62.3157287 C8.3966616,62.9844294 7.68806182,62.6215037 7.68806182,61.524551 L7.68806182,4.83883046 Z" id="path-3"></path>
        <circle id="path-5" cx="36" cy="36" r="36"></circle>
        <filter x="-50%" y="-50%" width="200%" height="200%" filterUnits="objectBoundingBox" id="filter-6">
            <feOffset dx="0" dy="2" in="SourceAlpha" result="shadowOffsetOuter1"></feOffset>
            <feGaussianBlur stdDeviation="2" in="shadowOffsetOuter1" result="shadowBlurOuter1"></feGaussianBlur>
            <feColorMatrix values="0 0 0 0 0   0 0 0 0 0   0 0 0 0 0  0 0 0 0.3 0" type="matrix" in="shadowBlurOuter1"></feColorMatrix>
        </filter>
        <circle id="path-7" cx="36" cy="36" r="36"></circle>
        <filter x="-50%" y="-50%" width="200%" height="200%" filterUnits="objectBoundingBox" id="filter-8">
            <feOffset dx="0" dy="2" in="SourceAlpha" result="shadowOffsetOuter1"></feOffset>
            <feGaussianBlur stdDeviation="3" in="shadowOffsetOuter1" result="shadowBlurOuter1"></feGaussianBlur>
            <feColorMatrix values="0 0 0 0 0.250980392   0 0 0 0 0.196078431   0 0 0 0 0.196078431  0 0 0 0.1 0" type="matrix" in="shadowBlurOuter1"></feColorMatrix>
        </filter>
        <circle id="path-9" cx="36" cy="36" r="32"></circle>
        <mask id="mask-10" maskContentUnits="userSpaceOnUse" maskUnits="objectBoundingBox" x="-1.5" y="-1.5" width="67" height="67">
            <rect x="2.5" y="2.5" width="67" height="67" fill="white"></rect>
            <use xlink:href="#path-9" fill="black"></use>
        </mask>
    </defs>
    <g id="Page-1" stroke="none" stroke-width="1" fill="none" fill-rule="evenodd">
        <g id="ICON" transform="translate(-636.000000, -472.000000)">
            <g id="badge_speedy_seller" transform="translate(642.000000, 476.000000)">
                <g id="Group-2" transform="translate(3.000000, 40.000000)">
                    <g id="Group">
                        <mask id="mask-2" fill="white">
                            <use xlink:href="#path-1"></use>
                        </mask>
                        <use id="Rectangle" fill="#FFAA00" transform="translate(18.864532, 32.744299) rotate(-345.000000) translate(-18.864532, -32.744299) " xlink:href="#path-1"></use>
                        <path d="M19.2794118,5.68965517 L4.75,59.2068966" id="Line" stroke="#FFFFFF" stroke-width="2" stroke-linecap="square" mask="url(#mask-2)"></path>
                        <path d="M33.8088235,8.44827586 L19.2794118,61.9655172" id="Line-Copy" stroke="#FFFFFF" stroke-width="2" stroke-linecap="square" mask="url(#mask-2)"></path>
                    </g>
                    <g id="Group-Copy" transform="translate(47.000000, 32.500000) scale(-1, 1) translate(-47.000000, -32.500000) translate(28.000000, 0.000000)">
                        <mask id="mask-4" fill="white">
                            <use xlink:href="#path-3"></use>
                        </mask>
                        <use id="Rectangle" fill="#FFAA00" transform="translate(18.864532, 32.744299) rotate(-345.000000) translate(-18.864532, -32.744299) " xlink:href="#path-3"></use>
                        <path d="M19.2794118,5.68965517 L4.75,59.2068966" id="Line" stroke="#FFFFFF" stroke-width="2" stroke-linecap="square" mask="url(#mask-4)"></path>
                        <path d="M33.8088235,8.44827586 L19.2794118,61.9655172" id="Line-Copy" stroke="#FFFFFF" stroke-width="2" stroke-linecap="square" mask="url(#mask-4)"></path>
                    </g>
                </g>
                <g id="Group-2-Copy">
                    <g id="Bg_hover_click">
                        <use fill="black" fill-opacity="1" filter="url(#filter-6)" xlink:href="#path-5"></use>
                        <use fill="#DADADA" fill-rule="evenodd" xlink:href="#path-5"></use>
                    </g>
                    <g id="Bg_normal">
                        <use fill="black" fill-opacity="1" filter="url(#filter-8)" xlink:href="#path-7"></use>
                        <use fill="#FFAA00" fill-rule="evenodd" xlink:href="#path-7"></use>
                    </g>
                    <use id="Bg_normal-Copy" stroke="#FFFFFF" mask="url(#mask-10)" stroke-width="3" xlink:href="#path-9"></use>
                    <text id="SPEEDY-SELLER" font-family="Avenir-Black, Avenir" font-size="12" font-weight="700" line-spacing="16" fill="#252525">
                        <tspan x="12.774" y="34">SPEEDY</tspan>
                        <tspan x="14.664" y="50">SELLER</tspan>
                    </text>
                </g>
            </g>
        </g>
    </g>
</svg>