<svg xmlns="http://www.w3.org/2000/svg" width="48" height="49" viewBox="0 0 48 49">
    <g fill="none" fill-rule="evenodd">
        <path fill="#DADADA" d="M0 0h48v48H0z" opacity=".5"/>
        <path fill="#FFF" d="M18 31.65L26.653 24 18 16.35 20.664 14 32 24 20.664 34 18 31.65"/>
    </g>
</svg>
