<?xml version="1.0" encoding="UTF-8" standalone="no"?>
<svg width="12px" height="8px" viewBox="0 0 12 8" version="1.1" xmlns="http://www.w3.org/2000/svg" xmlns:xlink="http://www.w3.org/1999/xlink">
    <!-- Generator: sketchtool 41.2 (35397) - http://www.bohemiancoding.com/sketch -->
    <title>7DA6559E-979F-4553-B8EA-A0A56C9B783A</title>
    <desc>Created with sketchtool.</desc>
    <defs></defs>
    <g id="Page-1" stroke="none" stroke-width="1" fill="none" fill-rule="evenodd">
        <g id="Web-5.07_Valuation_Vehicle_Exterior" transform="translate(-1198.000000, -934.000000)" fill="#B5B5B5">
            <g id="Group-6" transform="translate(240.000000, 914.000000)">
                <g id="Group-4">
                    <g id="icon_swipe_right-copy-2" transform="translate(964.000000, 24.000000) rotate(90.000000) translate(-964.000000, -24.000000) translate(952.000000, 12.000000)">
                        <polyline id="Fill-300" points="8 16.59 12.9446694 12 8 7.41 9.52226721 6 16 12 9.52226721 18 8 16.59"></polyline>
                    </g>
                </g>
            </g>
        </g>
    </g>
</svg>