<?xml version="1.0" encoding="UTF-8" standalone="no"?>
<svg width="12px" height="12px" viewBox="0 0 12 12" version="1.1" xmlns="http://www.w3.org/2000/svg" xmlns:xlink="http://www.w3.org/1999/xlink">
    <!-- Generator: sketchtool 41.2 (35397) - http://www.bohemiancoding.com/sketch -->
    <title>BDB20D38-9D40-44E7-8C06-76AD248751C5</title>
    <desc>Created with sketchtool.</desc>
    <defs></defs>
    <g id="Page-1" stroke="none" stroke-width="1" fill="none" fill-rule="evenodd">
        <g id="Web-5.07_Valuation_Vehicle_Exterior" transform="translate(-1198.000000, -1046.000000)" fill="#DADADA">
            <g id="Group-6" transform="translate(240.000000, 914.000000)">
                <g id="Group-3" transform="translate(952.000000, 126.000000)">
                    <polyline id="Fill-79" points="18 7.20857143 16.7914286 6 12 10.7914286 7.20857143 6 6 7.20857143 10.7914286 12 6 16.7914286 7.20857143 18 12 13.2085714 16.7914286 18 18 16.7914286 13.2085714 12 18 7.20857143"></polyline>
                </g>
            </g>
        </g>
    </g>
</svg>