<?xml version="1.0" encoding="UTF-8" standalone="no"?>
<svg width="68px" height="66px" viewBox="0 0 68 66" version="1.1" xmlns="http://www.w3.org/2000/svg" xmlns:xlink="http://www.w3.org/1999/xlink">
    <!-- Generator: sketchtool 41.2 (35397) - http://www.bohemiancoding.com/sketch -->
    <title>A8B83D99-8615-498A-A52E-3B86FFF6B1E4</title>
    <desc>Created with sketchtool.</desc>
    <defs></defs>
    <g id="Page-1" stroke="none" stroke-width="1" fill="none" fill-rule="evenodd">
        <g id="Web-5.07_Valuation_Vehicle_Exterior" transform="translate(-382.000000, -222.000000)">
            <g id="img_add_photo" transform="translate(382.000000, 221.000000)">
                <text id="Add-Photo" font-family="Avenir-Medium, Avenir" font-size="14" font-weight="400" fill="#8A8A8A">
                    <tspan x="0.123" y="66">Add Photo</tspan>
                </text>
                <g id="Group-4" transform="translate(9.000000, 0.000000)">
                    <path d="M43.5017394,6.38378411 L17.3193285,6.38378411 C15.7191475,6.38378411 14.4101718,7.68364024 14.4101718,9.272673 L14.4101718,29.4948952 C14.4101718,31.083928 15.7191475,32.3837841 17.3193285,32.3837841 L43.5017394,32.3837841 C45.1011961,32.3837841 46.4101718,31.083928 46.4101718,29.4948952 L46.4101718,9.272673 C46.4101718,7.68364024 45.1011961,6.38378411 43.5017394,6.38378411 L43.5017394,6.38378411 Z M17.3193285,9.2582861 L43.5017394,9.2582861 L43.5017394,29.5092821 L17.3193285,29.5092821 L17.3193285,9.2582861 Z" id="Fill-15" fill="#B5B5B5" transform="translate(30.410172, 19.383784) rotate(31.000000) translate(-30.410172, -19.383784) "></path>
                    <path d="M15.2,8 L12.272,11.2222222 L7.2,11.2222222 C5.44,11.2222222 4,12.6714167 4,14.4444444 L4,33.7777778 C4,35.55 5.44,37 7.2,37 L32.8,37 C34.56,37 36,35.55 36,33.7777778 L36,14.4444444 C36,12.6714167 34.56,11.2222222 32.8,11.2222222 L27.728,11.2222222 L24.8,8 L15.2,8 L15.2,8 Z M20,32.1666667 C15.584,32.1666667 12,28.5577778 12,24.1111111 C12,19.6636389 15.584,16.0555556 20,16.0555556 C24.416,16.0555556 28,19.6636389 28,24.1111111 C28,28.5577778 24.416,32.1666667 20,32.1666667 L20,32.1666667 Z M20,18.4722222 C23.093125,18.4722222 25.6,20.9965061 25.6,24.1111111 C25.6,27.2248351 23.093125,29.75 20,29.75 C16.906875,29.75 14.4,27.2248351 14.4,24.1111111 C14.4,20.9965061 16.906875,18.4722222 20,18.4722222" id="Fill-423-Copy" fill="#FFFFFF"></path>
                    <path d="M11.2,9 L8.272,12.2222222 L3.2,12.2222222 C1.44,12.2222222 0,13.6714167 0,15.4444444 L0,34.7777778 C0,36.55 1.44,38 3.2,38 L28.8,38 C30.56,38 32,36.55 32,34.7777778 L32,15.4444444 C32,13.6714167 30.56,12.2222222 28.8,12.2222222 L23.728,12.2222222 L20.8,9 L11.2,9 L11.2,9 Z M16,33.1666667 C11.584,33.1666667 8,29.5577778 8,25.1111111 C8,20.6636389 11.584,17.0555556 16,17.0555556 C20.416,17.0555556 24,20.6636389 24,25.1111111 C24,29.5577778 20.416,33.1666667 16,33.1666667 L16,33.1666667 Z M16,19.4722222 C19.093125,19.4722222 21.6,21.9965061 21.6,25.1111111 C21.6,28.2248351 19.093125,30.75 16,30.75 C12.906875,30.75 10.4,28.2248351 10.4,25.1111111 C10.4,21.9965061 12.906875,19.4722222 16,19.4722222" id="Fill-423" fill="#B5B5B5"></path>
                </g>
            </g>
        </g>
    </g>
</svg>