<?xml version="1.0" encoding="UTF-8" standalone="no"?>
<svg width="7px" height="10px" viewBox="0 0 7 10" version="1.1" xmlns="http://www.w3.org/2000/svg" xmlns:xlink="http://www.w3.org/1999/xlink">
    <!-- Generator: sketchtool 41.1 (35376) - http://www.bohemiancoding.com/sketch -->
    <title>5F0427E2-567D-4A17-9ABB-89DCE9A96F10</title>
    <desc>Created with sketchtool.</desc>
    <defs></defs>
    <g id="Page-1" stroke="none" stroke-width="1" fill="none" fill-rule="evenodd">
        <g id="Redesign_Web-40_Customers" transform="translate(-819.000000, -939.000000)" fill="#B5B5B5">
            <g id="Group-4" transform="translate(682.000000, 928.000000)">
                <g id="icon_swipe_right-copy-3" transform="translate(128.000000, 4.000000)">
                    <polyline id="Fill-300" points="9 15.825 13.3265857 12 9 8.175 10.3319838 7 16 12 10.3319838 17 9 15.825"></polyline>
                </g>
            </g>
        </g>
    </g>
</svg>