<?xml version="1.0" encoding="UTF-8" standalone="no"?>
<svg width="10px" height="7px" viewBox="0 0 10 7" version="1.1" xmlns="http://www.w3.org/2000/svg" xmlns:xlink="http://www.w3.org/1999/xlink">
    <!-- Generator: sketchtool 41 (35326) - http://www.bohemiancoding.com/sketch -->
    <title>A925ED83-7277-4237-B424-DA27633BAB20</title>
    <desc>Created with sketchtool.</desc>
    <defs></defs>
    <g id="Page-1" stroke="none" stroke-width="1" fill="none" fill-rule="evenodd">
        <g id="Web-40_Customers" transform="translate(-1254.000000, -25.000000)" fill="#FFFFFF">
            <g id="icon_swipe_bottom_white" transform="translate(1260.000000, 28.000000) rotate(90.000000) translate(-1260.000000, -28.000000) translate(1248.000000, 16.000000)">
                <polyline id="Fill-300" points="9 16.825 13.3265857 13 9 9.175 10.3319838 8 16 13 10.3319838 18 9 16.825"></polyline>
            </g>
        </g>
    </g>
</svg>