<?xml version="1.0" encoding="UTF-8" standalone="no"?>
<svg width="21px" height="9px" viewBox="0 0 21 9" version="1.1" xmlns="http://www.w3.org/2000/svg" xmlns:xlink="http://www.w3.org/1999/xlink">
    <!-- Generator: sketchtool 41.2 (35397) - http://www.bohemiancoding.com/sketch -->
    <title>E9F64008-0401-46FE-9377-82643EF493C7</title>
    <desc>Created with sketchtool.</desc>
    <defs></defs>
    <g id="Page-1" stroke="none" stroke-width="1" fill="none" fill-rule="evenodd">
        <g id="Web-8.02_Dashboard" transform="translate(-295.000000, -55.000000)" fill="#252525">
            <g id="Group-4" transform="translate(272.000000, 55.000000)">
                <polygon id="Triangle" points="33.5 0 44 9 23 9"></polygon>
            </g>
        </g>
    </g>
</svg>